[dotenv@17.2.3] injecting env (0) from .env -- tip: 🔐 prevent committing .env to code: https://dotenvx.com/precommit
>>> [Map Explorer] Registering Custom Fields...
{"level":"\u001b[32minfo\u001b[39m","message":"Semantic Search Plugin: Bootstrapping...","timestamp":"2026-03-02 16:35:42.629"}
{"level":"\u001b[32minfo\u001b[39m","message":"Pixel Forge Queues Initialized (Pixel: 1, Blueprint: 2)","timestamp":"2026-03-02 16:35:42.631"}
{"level":"\u001b[33mwarn\u001b[39m","message":"The graphql config playgroundAlways is deprecated. This will be removed in Strapi 6. Please use landingPage instead. ","timestamp":"2026-03-02 16:35:43.359"}
{"level":"\u001b[33mwarn\u001b[39m","message":"graphql config playgroundAlways:false has no effect, please use landingPage:false to disable Graphql Playground in all environments","timestamp":"2026-03-02 16:35:43.359"}
{"level":"\u001b[33mwarn\u001b[39m","message":"admin.auth.options.expiresIn is deprecated and will be removed in Strapi 6. Please configure admin.auth.sessions.maxRefreshTokenLifespan and admin.auth.sessions.maxSessionLifespan.","timestamp":"2026-03-02 16:35:43.395"}
{"level":"\u001b[32minfo\u001b[39m","message":"[Bootstrap] Database connection established successfully ⚡","timestamp":"2026-03-02 16:35:43.650"}
{"level":"\u001b[32minfo\u001b[39m","message":"[Bootstrap] Socket.IO initialization skipped (Sockets Disabled).","timestamp":"2026-03-02 16:35:43.650"}
{"level":"\u001b[32minfo\u001b[39m","message":"[Bootstrap] pgvector extension enabled.","timestamp":"2026-03-02 16:35:43.655"}
{"level":"\u001b[32minfo\u001b[39m","message":"[Bootstrap] access control for role j8kkc4v3ye1v006mqhurh0yi confirmed.","timestamp":"2026-03-02 16:35:43.660"}
{"level":"\u001b[32minfo\u001b[39m","message":"[Bootstrap] Configuring public role permissions...","timestamp":"2026-03-02 16:35:43.660"}
{"level":"\u001b[32minfo\u001b[39m","message":"[Bootstrap] Granting missing permissions: api::knowledge-source.knowledge-source.find, api::knowledge-source.knowledge-source.findOne, api::knowledge-snippet.knowledge-snippet.find, api::knowledge-snippet.knowledge-snippet.findOne","timestamp":"2026-03-02 16:35:43.664"}
[dotenv@17.2.3] injecting env (0) from dist/.env -- tip: 🛠️  run anywhere with `dotenvx run -- yourcommand`
{"level":"\u001b[32minfo\u001b[39m","message":"Starting workers for 7 queues...","scope":"WorkerManager","timestamp":"2026-03-02 16:35:43.674"}
{"level":"\u001b[32minfo\u001b[39m","message":"[Bootstrap] Background Queues & Workers Initialized 🚀","timestamp":"2026-03-02 16:35:43.674"}
{"level":"\u001b[32minfo\u001b[39m","message":"Initializing native BullMQ Worker for: embedding (Concurrency: 1)","scope":"WorkerManager","timestamp":"2026-03-02 16:35:43.697"}
{"level":"\u001b[32minfo\u001b[39m","message":"Initializing native BullMQ Worker for: generate-text-remote (Concurrency: 1)","scope":"WorkerManager","timestamp":"2026-03-02 16:35:43.697"}
{"level":"\u001b[32minfo\u001b[39m","message":"Initializing native BullMQ Worker for: generate-text-local (Concurrency: 1)","scope":"WorkerManager","timestamp":"2026-03-02 16:35:43.697"}
{"level":"\u001b[32minfo\u001b[39m","message":"Initializing native BullMQ Worker for: maintenance (Concurrency: 1)","scope":"WorkerManager","timestamp":"2026-03-02 16:35:43.697"}
{"level":"\u001b[32minfo\u001b[39m","message":"Initializing native BullMQ Worker for: genesis (Concurrency: 1)","scope":"WorkerManager","timestamp":"2026-03-02 16:35:43.698"}
{"level":"\u001b[32minfo\u001b[39m","message":"Initializing native BullMQ Worker for: compile (Concurrency: 1)","scope":"WorkerManager","timestamp":"2026-03-02 16:35:43.698"}
{"level":"\u001b[32minfo\u001b[39m","message":"Initializing native BullMQ Worker for: translate-entity (Concurrency: 1)","scope":"WorkerManager","timestamp":"2026-03-02 16:35:43.698"}
__JSON_START__
{
  "meta": {
    "type": "api::item.item",
    "action": "find",
    "filters": {},
    "pagination": {
      "page": 1,
      "pageSize": 10,
      "total": 470,
      "pageCount": 47
    }
  },
  "data": [
    {
      "id": 4444,
      "documentId": "rh4gjt8oqwlfoha3r0n9u2tx",
      "name": "Abacus",
      "slug": "abacus",
      "description": "A standard tool used for performing mathematical calculations.",
      "lore": null,
      "type": "loot",
      "rarity": "common",
      "value": 2,
      "weight": 2,
      "size": "Medium",
      "custom_data": null,
      "embedding": null,
      "width": 1,
      "height": 1,
      "pixel_generator": null,
      "createdAt": "2026-02-24T17:46:16.650Z",
      "updatedAt": "2026-02-24T17:46:16.650Z",
      "publishedAt": "2026-02-24T17:46:16.649Z",
      "locale": "en",
      "equipment_data": null,
      "spell_data": null,
      "compilation_state": null,
      "tags": []
    },
    {
      "id": 4446,
      "documentId": "zliu65vhx2bty9p1p08dcmbz",
      "name": "Alchemist's fire (flask)",
      "slug": "alchemists-fire-flask",
      "description": "This sticky, adhesive fluid ignites when exposed to air.\n\nAs an action, you can throw this flask up to 20 feet, shattering it on impact. Make a ranged attack against a creature or object, treating the alchemist's fire as an improvised weapon.\n\nOn a hit, ",
      "lore": null,
      "type": "consumable",
      "rarity": "common",
      "value": 50,
      "weight": 1,
      "size": "Medium",
      "custom_data": null,
      "embedding": null,
      "width": 1,
      "height": 1,
      "pixel_generator": null,
      "createdAt": "2026-02-24T17:46:16.685Z",
      "updatedAt": "2026-02-24T17:46:16.685Z",
      "publishedAt": "2026-02-24T17:46:16.682Z",
      "locale": "en",
      "equipment_data": {
        "id": 1557,
        "damage_dice": "1d4",
        "range_normal": 20,
        "range_long": null,
        "armor_class_base": null,
        "armor_class_dex_bonus": null,
        "str_minimum": null,
        "stealth_disadvantage": null,
        "versatile_dice": null,
        "damage_type": {
          "id": 261,
          "documentId": "k75or7pg9qm32kejo87ueysr",
          "slug": "fire",
          "name": "Fire",
          "embedding": null,
          "description": "Red dragons breathe fire, and many spells conjure flames to deal fire damage.",
          "createdAt": "2026-02-24T17:46:02.302Z",
          "updatedAt": "2026-02-24T17:46:02.302Z",
          "publishedAt": "2026-02-24T17:46:02.299Z",
          "locale": "en",
          "image": null,
          "compilation_state": {
            "id": 15742,
            "status": "Valid",
            "last_run": "2023-10-27T12:00:00.000Z",
            "summary": "Imported from SRD reference",
            "hash": "5e9f8a2b1c3d4e5f6g7h8i9j0k1l2m3n"
          },
          "createdBy": null,
          "updatedBy": null,
          "localizations": []
        },
        "properties": [],
        "actions": []
      },
      "spell_data": null,
      "compilation_state": null,
      "tags": []
    },
    {
      "id": 4448,
      "documentId": "o0jlqzq2qm2oplyjwkf4pdqz",
      "name": "Alms box",
      "slug": "alms-box",
      "description": "A small box for alms, typically found in a priest's pack.",
      "lore": null,
      "type": "loot",
      "rarity": "common",
      "value": 0,
      "weight": 0,
      "size": "Medium",
      "custom_data": null,
      "embedding": null,
      "width": 1,
      "height": 1,
      "pixel_generator": null,
      "createdAt": "2026-02-24T17:46:16.709Z",
      "updatedAt": "2026-02-24T17:46:16.709Z",
      "publishedAt": "2026-02-24T17:46:16.707Z",
      "locale": "en",
      "equipment_data": null,
      "spell_data": null,
      "compilation_state": null,
      "tags": []
    },
    {
      "id": 4450,
      "documentId": "e63ehesv0my527zfxty0r813",
      "name": "Animal Feed (1 day)",
      "slug": "animal-feed-1-day",
      "description": "A day's worth of feed for a mount or other animal, typically consisting of grain or hay.",
      "lore": null,
      "type": "loot",
      "rarity": "common",
      "value": 5,
      "weight": 10,
      "size": "Medium",
      "custom_data": null,
      "embedding": null,
      "width": 1,
      "height": 1,
      "pixel_generator": null,
      "createdAt": "2026-02-24T17:46:16.733Z",
      "updatedAt": "2026-02-24T17:46:16.733Z",
      "publishedAt": "2026-02-24T17:46:16.731Z",
      "locale": "en",
      "equipment_data": null,
      "spell_data": null,
      "compilation_state": null,
      "tags": []
    },
    {
      "id": 4452,
      "documentId": "u5abjdqoozty3zc7fq8dwdfl",
      "name": "Arrow",
      "slug": "arrow",
      "description": "Arrows are used with a weapon that has the ammunition property to make a ranged attack. Each time you attack with the weapon, you expend one piece of ammunition. Drawing the ammunition from a quiver, case, or other container is part of the attack. At the",
      "lore": null,
      "type": "loot",
      "rarity": "common",
      "value": 1,
      "weight": 1,
      "size": "Medium",
      "custom_data": null,
      "embedding": null,
      "width": 1,
      "height": 1,
      "pixel_generator": null,
      "createdAt": "2026-02-24T17:46:16.758Z",
      "updatedAt": "2026-02-24T17:46:16.758Z",
      "publishedAt": "2026-02-24T17:46:16.754Z",
      "locale": "en",
      "equipment_data": {
        "id": 1558,
        "damage_dice": null,
        "range_normal": null,
        "range_long": null,
        "armor_class_base": null,
        "armor_class_dex_bonus": null,
        "str_minimum": null,
        "stealth_disadvantage": null,
        "versatile_dice": null,
        "damage_type": null,
        "properties": [
          {
            "id": 212,
            "documentId": "jszsdy9tsee2qoqw5i4lmlbk",
            "slug": "ammunition",
            "embedding": null,
            "name": "Ammunition",
            "description": "You can use a weapon that has the ammunition property to make a ranged attack only if you have ammunition to fire from the weapon. Each time you attack with the weapon, you expend one piece of ammunition. Drawing the ammunition from a quiver, case, or ot",
            "createdAt": "2026-02-24T17:46:02.557Z",
            "updatedAt": "2026-02-24T17:46:02.557Z",
            "publishedAt": "2026-02-24T17:46:02.556Z",
            "locale": "en",
            "image": null,
            "createdBy": null,
            "updatedBy": null,
            "localizations": []
          }
        ],
        "actions": []
      },
      "spell_data": null,
      "compilation_state": null,
      "tags": []
    },
    {
      "id": 4454,
      "documentId": "xn93gq39ht69bq19pqaf1hz8",
      "name": "Bagpipes",
      "slug": "bagpipes",
      "description": "Several of the most common types of musical instruments are shown on the table as examples. If you have proficiency with a given musical instrument, you can add your proficiency bonus to any ability checks you make to play music with the instrument. A ba",
      "lore": null,
      "type": "tool",
      "rarity": "common",
      "value": 30,
      "weight": 6,
      "size": "Medium",
      "custom_data": null,
      "embedding": null,
      "width": 1,
      "height": 1,
      "pixel_generator": null,
      "createdAt": "2026-02-24T17:46:16.782Z",
      "updatedAt": "2026-02-24T17:46:16.782Z",
      "publishedAt": "2026-02-24T17:46:16.780Z",
      "locale": "en",
      "equipment_data": null,
      "spell_data": null,
      "compilation_state": null,
      "tags": []
    },
    {
      "id": 4456,
      "documentId": "h3p2cy39vyzfb5fmj3mx3ywr",
      "name": "Barding: Breastplate",
      "slug": "barding-breastplate",
      "description": "Barding is armor designed to protect an animal's head, neck, chest, and body. Any type of armor shown on the Armor table can be purchased as barding. The cost is four times the equivalent armor made for humanoids, and it weighs twice as much.",
      "lore": null,
      "type": "armor",
      "rarity": "common",
      "value": 1600,
      "weight": 40,
      "size": "Large",
      "custom_data": null,
      "embedding": null,
      "width": 1,
      "height": 1,
      "pixel_generator": null,
      "createdAt": "2026-02-24T17:46:16.805Z",
      "updatedAt": "2026-02-24T17:46:16.805Z",
      "publishedAt": "2026-02-24T17:46:16.803Z",
      "locale": "en",
      "equipment_data": {
        "id": 1559,
        "damage_dice": null,
        "range_normal": null,
        "range_long": null,
        "armor_class_base": 14,
        "armor_class_dex_bonus": true,
        "str_minimum": 0,
        "stealth_disadvantage": false,
        "versatile_dice": null,
        "damage_type": null,
        "properties": [],
        "actions": []
      },
      "spell_data": null,
      "compilation_state": null,
      "tags": []
    },
    {
      "id": 4458,
      "documentId": "muwqijomkwvodpsuss9ospxa",
      "name": "Barding: Chain shirt",
      "slug": "barding-chain-shirt",
      "description": "Barding is armor designed to protect an animal's head, neck, chest, and body. Any type of armor shown on the Armor table can be purchased as barding. The cost is four times the equivalent armor made for humanoids, and it weighs twice as much.",
      "lore": null,
      "type": "armor",
      "rarity": "common",
      "value": 200,
      "weight": 40,
      "size": "Medium",
      "custom_data": null,
      "embedding": null,
      "width": 1,
      "height": 1,
      "pixel_generator": null,
      "createdAt": "2026-02-24T17:46:16.834Z",
      "updatedAt": "2026-02-24T17:46:16.834Z",
      "publishedAt": "2026-02-24T17:46:16.831Z",
      "locale": "en",
      "equipment_data": {
        "id": 1561,
        "damage_dice": null,
        "range_normal": null,
        "range_long": null,
        "armor_class_base": 13,
        "armor_class_dex_bonus": true,
        "str_minimum": 0,
        "stealth_disadvantage": false,
        "versatile_dice": null,
        "damage_type": null,
        "properties": [],
        "actions": []
      },
      "spell_data": null,
      "compilation_state": null,
      "tags": []
    },
    {
      "id": 4460,
      "documentId": "aid6xdq2jsnf7dfshz3lieqc",
      "name": "Barding: Hide",
      "slug": "barding-hide",
      "description": "Barding is armor designed to protect an animal's head, neck, chest, and body. Any type of armor shown on the Armor table can be purchased as barding. The cost is four times the equivalent armor made for humanoids, and it weighs twice as much.",
      "lore": null,
      "type": "armor",
      "rarity": "common",
      "value": 40,
      "weight": 24,
      "size": "Medium",
      "custom_data": null,
      "embedding": null,
      "width": 1,
      "height": 1,
      "pixel_generator": null,
      "createdAt": "2026-02-24T17:46:16.862Z",
      "updatedAt": "2026-02-24T17:46:16.862Z",
      "publishedAt": "2026-02-24T17:46:16.859Z",
      "locale": "en",
      "equipment_data": {
        "id": 1563,
        "damage_dice": null,
        "range_normal": null,
        "range_long": null,
        "armor_class_base": 12,
        "armor_class_dex_bonus": true,
        "str_minimum": null,
        "stealth_disadvantage": false,
        "versatile_dice": null,
        "damage_type": null,
        "properties": [],
        "actions": []
      },
      "spell_data": null,
      "compilation_state": null,
      "tags": []
    },
    {
      "id": 4462,
      "documentId": "ime1b9rgufkgte6fi7w2p62c",
      "name": "Barding: Padded",
      "slug": "barding-padded",
      "description": "Barding is armor designed to protect an animal's head, neck, chest, and body. Any type of armor shown on the Armor table can be purchased as barding. The cost is four times the equivalent armor made for humanoids, and it weighs twice as much.",
      "lore": null,
      "type": "armor",
      "rarity": "common",
      "value": 20,
      "weight": 16,
      "size": "Medium",
      "custom_data": null,
      "embedding": null,
      "width": 1,
      "height": 1,
      "pixel_generator": null,
      "createdAt": "2026-02-24T17:46:16.890Z",
      "updatedAt": "2026-02-24T17:46:16.890Z",
      "publishedAt": "2026-02-24T17:46:16.887Z",
      "locale": "en",
      "equipment_data": {
        "id": 1565,
        "damage_dice": null,
        "range_normal": null,
        "range_long": null,
        "armor_class_base": 11,
        "armor_class_dex_bonus": true,
        "str_minimum": 0,
        "stealth_disadvantage": true,
        "versatile_dice": null,
        "damage_type": null,
        "properties": [],
        "actions": []
      },
      "spell_data": null,
      "compilation_state": null,
      "tags": []
    }
  ]
}
__JSON_END__
{"level":"\u001b[32minfo\u001b[39m","message":"Shutting down Strapi","timestamp":"2026-03-02 16:35:43.725"}
{"level":"\u001b[32minfo\u001b[39m","message":"Gracefully shutting down workers...","scope":"WorkerManager","timestamp":"2026-03-02 16:35:43.727"}
{"level":"\u001b[32minfo\u001b[39m","message":"Strapi has been shut down","timestamp":"2026-03-02 16:35:43.736"}
